final_project/transcript
# Compile of alu.sv was successful.
# Compile of control.sv was successful.
# Compile of simd_accerlator_top_level.sv was successful with warnings.
# Compile of tb_simd.sv was successful.
# 4 compiles, 0 failed with no errors.
# Compile of alu.sv was successful.
# Compile of control.sv was successful.
# Compile of simd_accerlator_top_level.sv was successful with warnings.
# Compile of tb_simd.sv was successful.
# Compile of tb_reduction.sv was successful.
# 5 compiles, 0 failed with no errors.
vsim -gui work.tb_reduction
# vsim -gui work.tb_reduction 
# Start time: 16:50:10 on Apr 27,2026
# Loading sv_std.std
# Loading work.tb_reduction
# Loading work.simd
# Loading work.control
# Loading work.alu
add wave -position insertpoint sim:/tb_reduction/dut/*
run -all
# 
# ==============================================
# TEST: REDUCE_ADD_N10
# OPERATION: REDUCTION ADD
# n = 10, a_address = 0, expected sum = 55
# 
# Initial A content:
#   A[0] @ addr 0 = 1 (0x00000001)
#   A[1] @ addr 1 = 2 (0x00000002)
#   A[2] @ addr 2 = 3 (0x00000003)
#   A[3] @ addr 3 = 4 (0x00000004)
#   A[4] @ addr 4 = 5 (0x00000005)
#   A[5] @ addr 5 = 6 (0x00000006)
#   A[6] @ addr 6 = 7 (0x00000007)
#   A[7] @ addr 7 = 8 (0x00000008)
#   A[8] @ addr 8 = 9 (0x00000009)
#   A[9] @ addr 9 = 10 (0x0000000a)
# [66000] LANE ACTIVITY:
#   lane 0 | rd1_addr=0 rd1_data=1 | rd2_addr=1 rd2_data=2 | wr_en=0 wr_addr=0 wr_data=0
#   lane 1 | rd1_addr=2 rd1_data=3 | rd2_addr=3 rd2_data=4 | wr_en=0 wr_addr=0 wr_data=0
#   lane 2 | rd1_addr=4 rd1_data=5 | rd2_addr=5 rd2_data=6 | wr_en=0 wr_addr=0 wr_data=0
#   lane 3 | rd1_addr=6 rd1_data=7 | rd2_addr=7 rd2_data=8 | wr_en=0 wr_addr=0 wr_data=0
# 
# [66000] STEP COMPLETED: stride=1
# 
# A content after step_complete:
#   A[0] @ addr 0 = 1 (0x00000001)
#   A[1] @ addr 1 = 2 (0x00000002)
#   A[2] @ addr 2 = 3 (0x00000003)
#   A[3] @ addr 3 = 4 (0x00000004)
#   A[4] @ addr 4 = 5 (0x00000005)
#   A[5] @ addr 5 = 6 (0x00000006)
#   A[6] @ addr 6 = 7 (0x00000007)
#   A[7] @ addr 7 = 8 (0x00000008)
#   A[8] @ addr 8 = 9 (0x00000009)
#   A[9] @ addr 9 = 10 (0x0000000a)
# [76000] LANE ACTIVITY:
#   lane 0 | rd1_addr=8 rd1_data=9 | rd2_addr=9 rd2_data=10 | wr_en=1 wr_addr=0 wr_data=0
#   lane 1 | rd1_addr=10 rd1_data=0 | rd2_addr=11 rd2_data=0 | wr_en=1 wr_addr=2 wr_data=0
#   lane 2 | rd1_addr=12 rd1_data=0 | rd2_addr=13 rd2_data=0 | wr_en=1 wr_addr=4 wr_data=0
#   lane 3 | rd1_addr=14 rd1_data=0 | rd2_addr=15 rd2_data=0 | wr_en=1 wr_addr=6 wr_data=0
# 
# [76000] STEP COMPLETED: stride=2
# 
# A content after step_complete:
#   A[0] @ addr 0 = 1 (0x00000001)
#   A[1] @ addr 1 = 2 (0x00000002)
#   A[2] @ addr 2 = 3 (0x00000003)
#   A[3] @ addr 3 = 4 (0x00000004)
#   A[4] @ addr 4 = 5 (0x00000005)
#   A[5] @ addr 5 = 6 (0x00000006)
#   A[6] @ addr 6 = 7 (0x00000007)
#   A[7] @ addr 7 = 8 (0x00000008)
#   A[8] @ addr 8 = 9 (0x00000009)
#   A[9] @ addr 9 = 10 (0x0000000a)
# [85000] WRITE lane=0 addr=0 data=0 (0x00000000)
# [85000] WRITE lane=1 addr=2 data=0 (0x00000000)
# [85000] WRITE lane=2 addr=4 data=0 (0x00000000)
# [85000] WRITE lane=3 addr=6 data=0 (0x00000000)
# [86000] LANE ACTIVITY:
#   lane 0 | rd1_addr=0 rd1_data=0 | rd2_addr=2 rd2_data=0 | wr_en=1 wr_addr=8 wr_data=0
#   lane 1 | rd1_addr=4 rd1_data=0 | rd2_addr=6 rd2_data=0 | wr_en=0 wr_addr=10 wr_data=0
#   lane 2 | rd1_addr=8 rd1_data=9 | rd2_addr=10 rd2_data=0 | wr_en=0 wr_addr=12 wr_data=0
#   lane 3 | rd1_addr=12 rd1_data=0 | rd2_addr=14 rd2_data=0 | wr_en=0 wr_addr=14 wr_data=0
# 
# [86000] STEP COMPLETED: stride=4
# 
# A content after step_complete:
#   A[0] @ addr 0 = 0 (0x00000000)
#   A[1] @ addr 1 = 2 (0x00000002)
#   A[2] @ addr 2 = 0 (0x00000000)
#   A[3] @ addr 3 = 4 (0x00000004)
#   A[4] @ addr 4 = 0 (0x00000000)
#   A[5] @ addr 5 = 6 (0x00000006)
#   A[6] @ addr 6 = 0 (0x00000000)
#   A[7] @ addr 7 = 8 (0x00000008)
#   A[8] @ addr 8 = 9 (0x00000009)
#   A[9] @ addr 9 = 10 (0x0000000a)
# [95000] WRITE lane=0 addr=8 data=0 (0x00000000)
# [96000] LANE ACTIVITY:
#   lane 0 | rd1_addr=0 rd1_data=0 | rd2_addr=4 rd2_data=0 | wr_en=1 wr_addr=0 wr_data=0
#   lane 1 | rd1_addr=8 rd1_data=0 | rd2_addr=12 rd2_data=0 | wr_en=1 wr_addr=4 wr_data=0
#   lane 2 | rd1_addr=16 rd1_data=0 | rd2_addr=20 rd2_data=0 | wr_en=1 wr_addr=8 wr_data=0
#   lane 3 | rd1_addr=24 rd1_data=0 | rd2_addr=28 rd2_data=0 | wr_en=0 wr_addr=12 wr_data=0
# 
# [96000] STEP COMPLETED: stride=8
# 
# A content after step_complete:
#   A[0] @ addr 0 = 0 (0x00000000)
#   A[1] @ addr 1 = 2 (0x00000002)
#   A[2] @ addr 2 = 0 (0x00000000)
#   A[3] @ addr 3 = 4 (0x00000004)
#   A[4] @ addr 4 = 0 (0x00000000)
#   A[5] @ addr 5 = 6 (0x00000006)
#   A[6] @ addr 6 = 0 (0x00000000)
#   A[7] @ addr 7 = 8 (0x00000008)
#   A[8] @ addr 8 = 0 (0x00000000)
#   A[9] @ addr 9 = 10 (0x0000000a)
# [105000] WRITE lane=0 addr=0 data=0 (0x00000000)
# [105000] WRITE lane=1 addr=4 data=0 (0x00000000)
# [105000] WRITE lane=2 addr=8 data=0 (0x00000000)
# [106000] LANE ACTIVITY:
#   lane 0 | rd1_addr=0 rd1_data=0 | rd2_addr=8 rd2_data=0 | wr_en=1 wr_addr=0 wr_data=0
#   lane 1 | rd1_addr=16 rd1_data=0 | rd2_addr=24 rd2_data=0 | wr_en=1 wr_addr=8 wr_data=0
#   lane 2 | rd1_addr=32 rd1_data=0 | rd2_addr=40 rd2_data=0 | wr_en=0 wr_addr=16 wr_data=0
#   lane 3 | rd1_addr=48 rd1_data=0 | rd2_addr=56 rd2_data=0 | wr_en=0 wr_addr=24 wr_data=0
# 
# [106000] STEP COMPLETED: stride=16
# 
# A content after step_complete:
#   A[0] @ addr 0 = 0 (0x00000000)
#   A[1] @ addr 1 = 2 (0x00000002)
#   A[2] @ addr 2 = 0 (0x00000000)
#   A[3] @ addr 3 = 4 (0x00000004)
#   A[4] @ addr 4 = 0 (0x00000000)
#   A[5] @ addr 5 = 6 (0x00000006)
#   A[6] @ addr 6 = 0 (0x00000000)
#   A[7] @ addr 7 = 8 (0x00000008)
#   A[8] @ addr 8 = 0 (0x00000000)
#   A[9] @ addr 9 = 10 (0x0000000a)
# [115000] WRITE lane=0 addr=0 data=0 (0x00000000)
# [115000] WRITE lane=1 addr=8 data=0 (0x00000000)
# [116000] LANE ACTIVITY:
#   lane 0 | rd1_addr=0 rd1_data=0 | rd2_addr=16 rd2_data=0 | wr_en=1 wr_addr=0 wr_data=0
#   lane 1 | rd1_addr=32 rd1_data=0 | rd2_addr=48 rd2_data=0 | wr_en=0 wr_addr=16 wr_data=0
#   lane 2 | rd1_addr=64 rd1_data=0 | rd2_addr=80 rd2_data=0 | wr_en=0 wr_addr=32 wr_data=0
#   lane 3 | rd1_addr=96 rd1_data=0 | rd2_addr=112 rd2_data=0 | wr_en=0 wr_addr=48 wr_data=0
# 
# [116000] STEP COMPLETED: stride=32
# 
# A content after step_complete:
#   A[0] @ addr 0 = 0 (0x00000000)
#   A[1] @ addr 1 = 2 (0x00000002)
#   A[2] @ addr 2 = 0 (0x00000000)
#   A[3] @ addr 3 = 4 (0x00000004)
#   A[4] @ addr 4 = 0 (0x00000000)
#   A[5] @ addr 5 = 6 (0x00000006)
#   A[6] @ addr 6 = 0 (0x00000000)
#   A[7] @ addr 7 = 8 (0x00000008)
#   A[8] @ addr 8 = 0 (0x00000000)
#   A[9] @ addr 9 = 10 (0x0000000a)
# [125000] WRITE lane=0 addr=0 data=0 (0x00000000)
# [126000] LANE ACTIVITY:
#   lane 0 | rd1_addr=0 rd1_data=0 | rd2_addr=32 rd2_data=0 | wr_en=1 wr_addr=0 wr_data=0
#   lane 1 | rd1_addr=64 rd1_data=0 | rd2_addr=96 rd2_data=0 | wr_en=0 wr_addr=32 wr_data=0
#   lane 2 | rd1_addr=128 rd1_data=0 | rd2_addr=160 rd2_data=0 | wr_en=0 wr_addr=64 wr_data=0
#   lane 3 | rd1_addr=192 rd1_data=0 | rd2_addr=224 rd2_data=0 | wr_en=0 wr_addr=96 wr_data=0
# 
# [126000] STEP COMPLETED: stride=64
# 
# A content after step_complete:
#   A[0] @ addr 0 = 0 (0x00000000)
#   A[1] @ addr 1 = 2 (0x00000002)
#   A[2] @ addr 2 = 0 (0x00000000)
#   A[3] @ addr 3 = 4 (0x00000004)
#   A[4] @ addr 4 = 0 (0x00000000)
#   A[5] @ addr 5 = 6 (0x00000006)
#   A[6] @ addr 6 = 0 (0x00000000)
#   A[7] @ addr 7 = 8 (0x00000008)
#   A[8] @ addr 8 = 0 (0x00000000)
#   A[9] @ addr 9 = 10 (0x0000000a)
# [135000] WRITE lane=0 addr=0 data=0 (0x00000000)
# [136000] LANE ACTIVITY:
#   lane 0 | rd1_addr=0 rd1_data=0 | rd2_addr=64 rd2_data=0 | wr_en=1 wr_addr=0 wr_data=0
#   lane 1 | rd1_addr=128 rd1_data=0 | rd2_addr=192 rd2_data=0 | wr_en=0 wr_addr=64 wr_data=0
#   lane 2 | rd1_addr=256 rd1_data=x | rd2_addr=320 rd2_data=x | wr_en=0 wr_addr=128 wr_data=0
#   lane 3 | rd1_addr=384 rd1_data=x | rd2_addr=448 rd2_data=x | wr_en=0 wr_addr=192 wr_data=0
# 
# [136000] STEP COMPLETED: stride=128
# 
# A content after step_complete:
#   A[0] @ addr 0 = 0 (0x00000000)
#   A[1] @ addr 1 = 2 (0x00000002)
#   A[2] @ addr 2 = 0 (0x00000000)
#   A[3] @ addr 3 = 4 (0x00000004)
#   A[4] @ addr 4 = 0 (0x00000000)
#   A[5] @ addr 5 = 6 (0x00000006)
#   A[6] @ addr 6 = 0 (0x00000000)
#   A[7] @ addr 7 = 8 (0x00000008)
#   A[8] @ addr 8 = 0 (0x00000000)
#   A[9] @ addr 9 = 10 (0x0000000a)
# [145000] WRITE lane=0 addr=0 data=0 (0x00000000)
# [146000] LANE ACTIVITY:
#   lane 0 | rd1_addr=0 rd1_data=0 | rd2_addr=128 rd2_data=0 | wr_en=1 wr_addr=0 wr_data=0
#   lane 1 | rd1_addr=256 rd1_data=x | rd2_addr=384 rd2_data=x | wr_en=0 wr_addr=128 wr_data=0
#   lane 2 | rd1_addr=512 rd1_data=x | rd2_addr=640 rd2_data=x | wr_en=0 wr_addr=256 wr_data=0
#   lane 3 | rd1_addr=768 rd1_data=x | rd2_addr=896 rd2_data=x | wr_en=0 wr_addr=384 wr_data=0
# 
# [146000] STEP COMPLETED: stride=256
# 
# A content after step_complete:
#   A[0] @ addr 0 = 0 (0x00000000)
#   A[1] @ addr 1 = 2 (0x00000002)
#   A[2] @ addr 2 = 0 (0x00000000)
#   A[3] @ addr 3 = 4 (0x00000004)
#   A[4] @ addr 4 = 0 (0x00000000)
#   A[5] @ addr 5 = 6 (0x00000006)
#   A[6] @ addr 6 = 0 (0x00000000)
#   A[7] @ addr 7 = 8 (0x00000008)
#   A[8] @ addr 8 = 0 (0x00000000)
#   A[9] @ addr 9 = 10 (0x0000000a)
# [155000] WRITE lane=0 addr=0 data=0 (0x00000000)
# [156000] LANE ACTIVITY:
#   lane 0 | rd1_addr=0 rd1_data=0 | rd2_addr=256 rd2_data=x | wr_en=1 wr_addr=0 wr_data=0
#   lane 1 | rd1_addr=512 rd1_data=x | rd2_addr=768 rd2_data=x | wr_en=0 wr_addr=256 wr_data=0
#   lane 2 | rd1_addr=1024 rd1_data=x | rd2_addr=1280 rd2_data=x | wr_en=0 wr_addr=512 wr_data=0
#   lane 3 | rd1_addr=1536 rd1_data=x | rd2_addr=1792 rd2_data=x | wr_en=0 wr_addr=768 wr_data=0
# 
# [156000] STEP COMPLETED: stride=512
# 
# A content after step_complete:
#   A[0] @ addr 0 = 0 (0x00000000)
#   A[1] @ addr 1 = 2 (0x00000002)
#   A[2] @ addr 2 = 0 (0x00000000)
#   A[3] @ addr 3 = 4 (0x00000004)
#   A[4] @ addr 4 = 0 (0x00000000)
#   A[5] @ addr 5 = 6 (0x00000006)
#   A[6] @ addr 6 = 0 (0x00000000)
#   A[7] @ addr 7 = 8 (0x00000008)
#   A[8] @ addr 8 = 0 (0x00000000)
#   A[9] @ addr 9 = 10 (0x0000000a)
# [165000] WRITE lane=0 addr=0 data=0 (0x00000000)
# [166000] LANE ACTIVITY:
#   lane 0 | rd1_addr=0 rd1_data=0 | rd2_addr=512 rd2_data=x | wr_en=1 wr_addr=0 wr_data=0
#   lane 1 | rd1_addr=1024 rd1_data=x | rd2_addr=1536 rd2_data=x | wr_en=0 wr_addr=512 wr_data=0
#   lane 2 | rd1_addr=2048 rd1_data=x | rd2_addr=2560 rd2_data=x | wr_en=0 wr_addr=1024 wr_data=0
#   lane 3 | rd1_addr=3072 rd1_data=x | rd2_addr=3584 rd2_data=x | wr_en=0 wr_addr=1536 wr_data=0
# 
# [166000] STEP COMPLETED: stride=1024
# 
# A content after step_complete:
#   A[0] @ addr 0 = 0 (0x00000000)
#   A[1] @ addr 1 = 2 (0x00000002)
#   A[2] @ addr 2 = 0 (0x00000000)
#   A[3] @ addr 3 = 4 (0x00000004)
#   A[4] @ addr 4 = 0 (0x00000000)
#   A[5] @ addr 5 = 6 (0x00000006)
#   A[6] @ addr 6 = 0 (0x00000000)
#   A[7] @ addr 7 = 8 (0x00000008)
#   A[8] @ addr 8 = 0 (0x00000000)
#   A[9] @ addr 9 = 10 (0x0000000a)
# [175000] WRITE lane=0 addr=0 data=0 (0x00000000)
# [176000] LANE ACTIVITY:
#   lane 0 | rd1_addr=0 rd1_data=0 | rd2_addr=1024 rd2_data=x | wr_en=1 wr_addr=0 wr_data=0
#   lane 1 | rd1_addr=2048 rd1_data=x | rd2_addr=3072 rd2_data=x | wr_en=0 wr_addr=1024 wr_data=0
#   lane 2 | rd1_addr=4096 rd1_data=x | rd2_addr=5120 rd2_data=x | wr_en=0 wr_addr=2048 wr_data=0
#   lane 3 | rd1_addr=6144 rd1_data=x | rd2_addr=7168 rd2_data=x | wr_en=0 wr_addr=3072 wr_data=0
# 
# [176000] STEP COMPLETED: stride=2048
# 
# A content after step_complete:
#   A[0] @ addr 0 = 0 (0x00000000)
#   A[1] @ addr 1 = 2 (0x00000002)
#   A[2] @ addr 2 = 0 (0x00000000)
#   A[3] @ addr 3 = 4 (0x00000004)
#   A[4] @ addr 4 = 0 (0x00000000)
#   A[5] @ addr 5 = 6 (0x00000006)
#   A[6] @ addr 6 = 0 (0x00000000)
#   A[7] @ addr 7 = 8 (0x00000008)
#   A[8] @ addr 8 = 0 (0x00000000)
#   A[9] @ addr 9 = 10 (0x0000000a)
# [185000] WRITE lane=0 addr=0 data=0 (0x00000000)
# [186000] LANE ACTIVITY:
#   lane 0 | rd1_addr=0 rd1_data=0 | rd2_addr=2048 rd2_data=x | wr_en=1 wr_addr=0 wr_data=0
#   lane 1 | rd1_addr=4096 rd1_data=x | rd2_addr=6144 rd2_data=x | wr_en=0 wr_addr=2048 wr_data=0
#   lane 2 | rd1_addr=8192 rd1_data=x | rd2_addr=10240 rd2_data=x | wr_en=0 wr_addr=4096 wr_data=0
#   lane 3 | rd1_addr=12288 rd1_data=x | rd2_addr=14336 rd2_data=x | wr_en=0 wr_addr=6144 wr_data=0
# 
# [186000] STEP COMPLETED: stride=4096
# 
# A content after step_complete:
#   A[0] @ addr 0 = 0 (0x00000000)
#   A[1] @ addr 1 = 2 (0x00000002)
#   A[2] @ addr 2 = 0 (0x00000000)
#   A[3] @ addr 3 = 4 (0x00000004)
#   A[4] @ addr 4 = 0 (0x00000000)
#   A[5] @ addr 5 = 6 (0x00000006)
#   A[6] @ addr 6 = 0 (0x00000000)
#   A[7] @ addr 7 = 8 (0x00000008)
#   A[8] @ addr 8 = 0 (0x00000000)
#   A[9] @ addr 9 = 10 (0x0000000a)
# [195000] WRITE lane=0 addr=0 data=0 (0x00000000)
# [196000] LANE ACTIVITY:
#   lane 0 | rd1_addr=0 rd1_data=0 | rd2_addr=4096 rd2_data=x | wr_en=1 wr_addr=0 wr_data=0
#   lane 1 | rd1_addr=8192 rd1_data=x | rd2_addr=12288 rd2_data=x | wr_en=0 wr_addr=4096 wr_data=0
#   lane 2 | rd1_addr=16384 rd1_data=x | rd2_addr=20480 rd2_data=x | wr_en=0 wr_addr=8192 wr_data=0
#   lane 3 | rd1_addr=24576 rd1_data=x | rd2_addr=28672 rd2_data=x | wr_en=0 wr_addr=12288 wr_data=0
# 
# [196000] STEP COMPLETED: stride=8192
# 
# A content after step_complete:
#   A[0] @ addr 0 = 0 (0x00000000)
#   A[1] @ addr 1 = 2 (0x00000002)
#   A[2] @ addr 2 = 0 (0x00000000)
#   A[3] @ addr 3 = 4 (0x00000004)
#   A[4] @ addr 4 = 0 (0x00000000)
#   A[5] @ addr 5 = 6 (0x00000006)
#   A[6] @ addr 6 = 0 (0x00000000)
#   A[7] @ addr 7 = 8 (0x00000008)
#   A[8] @ addr 8 = 0 (0x00000000)
#   A[9] @ addr 9 = 10 (0x0000000a)
# [205000] WRITE lane=0 addr=0 data=0 (0x00000000)
# [206000] LANE ACTIVITY:
#   lane 0 | rd1_addr=0 rd1_data=0 | rd2_addr=8192 rd2_data=x | wr_en=1 wr_addr=0 wr_data=0
#   lane 1 | rd1_addr=16384 rd1_data=x | rd2_addr=24576 rd2_data=x | wr_en=0 wr_addr=8192 wr_data=0
#   lane 2 | rd1_addr=32768 rd1_data=x | rd2_addr=40960 rd2_data=x | wr_en=0 wr_addr=16384 wr_data=0
#   lane 3 | rd1_addr=49152 rd1_data=x | rd2_addr=57344 rd2_data=x | wr_en=0 wr_addr=24576 wr_data=0
# 
# [206000] STEP COMPLETED: stride=16384
# 
# A content after step_complete:
#   A[0] @ addr 0 = 0 (0x00000000)
#   A[1] @ addr 1 = 2 (0x00000002)
#   A[2] @ addr 2 = 0 (0x00000000)
#   A[3] @ addr 3 = 4 (0x00000004)
#   A[4] @ addr 4 = 0 (0x00000000)
#   A[5] @ addr 5 = 6 (0x00000006)
#   A[6] @ addr 6 = 0 (0x00000000)
#   A[7] @ addr 7 = 8 (0x00000008)
#   A[8] @ addr 8 = 0 (0x00000000)
#   A[9] @ addr 9 = 10 (0x0000000a)
# [215000] WRITE lane=0 addr=0 data=0 (0x00000000)
# [216000] LANE ACTIVITY:
#   lane 0 | rd1_addr=0 rd1_data=0 | rd2_addr=16384 rd2_data=x | wr_en=1 wr_addr=0 wr_data=0
#   lane 1 | rd1_addr=32768 rd1_data=x | rd2_addr=49152 rd2_data=x | wr_en=0 wr_addr=16384 wr_data=0
#   lane 2 | rd1_addr=65536 rd1_data=x | rd2_addr=81920 rd2_data=x | wr_en=0 wr_addr=32768 wr_data=0
#   lane 3 | rd1_addr=98304 rd1_data=x | rd2_addr=114688 rd2_data=x | wr_en=0 wr_addr=49152 wr_data=0
# 
# [216000] STEP COMPLETED: stride=32768
# 
# A content after step_complete:
#   A[0] @ addr 0 = 0 (0x00000000)
#   A[1] @ addr 1 = 2 (0x00000002)
#   A[2] @ addr 2 = 0 (0x00000000)
#   A[3] @ addr 3 = 4 (0x00000004)
#   A[4] @ addr 4 = 0 (0x00000000)
#   A[5] @ addr 5 = 6 (0x00000006)
#   A[6] @ addr 6 = 0 (0x00000000)
#   A[7] @ addr 7 = 8 (0x00000008)
#   A[8] @ addr 8 = 0 (0x00000000)
#   A[9] @ addr 9 = 10 (0x0000000a)
# [225000] WRITE lane=0 addr=0 data=0 (0x00000000)
# [226000] LANE ACTIVITY:
#   lane 0 | rd1_addr=0 rd1_data=0 | rd2_addr=32768 rd2_data=x | wr_en=1 wr_addr=0 wr_data=0
#   lane 1 | rd1_addr=65536 rd1_data=x | rd2_addr=98304 rd2_data=x | wr_en=0 wr_addr=32768 wr_data=0
#   lane 2 | rd1_addr=131072 rd1_data=x | rd2_addr=163840 rd2_data=x | wr_en=0 wr_addr=65536 wr_data=0
#   lane 3 | rd1_addr=196608 rd1_data=x | rd2_addr=229376 rd2_data=x | wr_en=0 wr_addr=98304 wr_data=0
# 
# [226000] STEP COMPLETED: stride=65536
# 
# A content after step_complete:
#   A[0] @ addr 0 = 0 (0x00000000)
#   A[1] @ addr 1 = 2 (0x00000002)
#   A[2] @ addr 2 = 0 (0x00000000)
#   A[3] @ addr 3 = 4 (0x00000004)
#   A[4] @ addr 4 = 0 (0x00000000)
#   A[5] @ addr 5 = 6 (0x00000006)
#   A[6] @ addr 6 = 0 (0x00000000)
#   A[7] @ addr 7 = 8 (0x00000008)
#   A[8] @ addr 8 = 0 (0x00000000)
#   A[9] @ addr 9 = 10 (0x0000000a)
# [235000] WRITE lane=0 addr=0 data=0 (0x00000000)
# [236000] LANE ACTIVITY:
#   lane 0 | rd1_addr=0 rd1_data=0 | rd2_addr=65536 rd2_data=x | wr_en=1 wr_addr=0 wr_data=0
#   lane 1 | rd1_addr=131072 rd1_data=x | rd2_addr=196608 rd2_data=x | wr_en=0 wr_addr=65536 wr_data=0
#   lane 2 | rd1_addr=262144 rd1_data=x | rd2_addr=327680 rd2_data=x | wr_en=0 wr_addr=131072 wr_data=0
#   lane 3 | rd1_addr=393216 rd1_data=x | rd2_addr=458752 rd2_data=x | wr_en=0 wr_addr=196608 wr_data=0
# 
# [236000] STEP COMPLETED: stride=131072
# 
# A content after step_complete:
#   A[0] @ addr 0 = 0 (0x00000000)
#   A[1] @ addr 1 = 2 (0x00000002)
#   A[2] @ addr 2 = 0 (0x00000000)
#   A[3] @ addr 3 = 4 (0x00000004)
#   A[4] @ addr 4 = 0 (0x00000000)
#   A[5] @ addr 5 = 6 (0x00000006)
#   A[6] @ addr 6 = 0 (0x00000000)
#   A[7] @ addr 7 = 8 (0x00000008)
#   A[8] @ addr 8 = 0 (0x00000000)
#   A[9] @ addr 9 = 10 (0x0000000a)
# [245000] WRITE lane=0 addr=0 data=0 (0x00000000)
# [246000] LANE ACTIVITY:
#   lane 0 | rd1_addr=0 rd1_data=0 | rd2_addr=131072 rd2_data=x | wr_en=1 wr_addr=0 wr_data=0
#   lane 1 | rd1_addr=262144 rd1_data=x | rd2_addr=393216 rd2_data=x | wr_en=0 wr_addr=131072 wr_data=0
#   lane 2 | rd1_addr=524288 rd1_data=x | rd2_addr=655360 rd2_data=x | wr_en=0 wr_addr=262144 wr_data=0
#   lane 3 | rd1_addr=786432 rd1_data=x | rd2_addr=917504 rd2_data=x | wr_en=0 wr_addr=393216 wr_data=0
# 
# [246000] STEP COMPLETED: stride=262144
# 
# A content after step_complete:
#   A[0] @ addr 0 = 0 (0x00000000)
#   A[1] @ addr 1 = 2 (0x00000002)
#   A[2] @ addr 2 = 0 (0x00000000)
#   A[3] @ addr 3 = 4 (0x00000004)
#   A[4] @ addr 4 = 0 (0x00000000)
#   A[5] @ addr 5 = 6 (0x00000006)
#   A[6] @ addr 6 = 0 (0x00000000)
#   A[7] @ addr 7 = 8 (0x00000008)
#   A[8] @ addr 8 = 0 (0x00000000)
#   A[9] @ addr 9 = 10 (0x0000000a)
# [255000] WRITE lane=0 addr=0 data=0 (0x00000000)
# [256000] LANE ACTIVITY:
#   lane 0 | rd1_addr=0 rd1_data=0 | rd2_addr=262144 rd2_data=x | wr_en=1 wr_addr=0 wr_data=0
#   lane 1 | rd1_addr=524288 rd1_data=x | rd2_addr=786432 rd2_data=x | wr_en=0 wr_addr=262144 wr_data=0
#   lane 2 | rd1_addr=1048576 rd1_data=x | rd2_addr=1310720 rd2_data=x | wr_en=0 wr_addr=524288 wr_data=0
#   lane 3 | rd1_addr=1572864 rd1_data=x | rd2_addr=1835008 rd2_data=x | wr_en=0 wr_addr=786432 wr_data=0
# 
# [256000] STEP COMPLETED: stride=524288
# 
# A content after step_complete:
#   A[0] @ addr 0 = 0 (0x00000000)
#   A[1] @ addr 1 = 2 (0x00000002)
#   A[2] @ addr 2 = 0 (0x00000000)
#   A[3] @ addr 3 = 4 (0x00000004)
#   A[4] @ addr 4 = 0 (0x00000000)
#   A[5] @ addr 5 = 6 (0x00000006)
#   A[6] @ addr 6 = 0 (0x00000000)
#   A[7] @ addr 7 = 8 (0x00000008)
#   A[8] @ addr 8 = 0 (0x00000000)
#   A[9] @ addr 9 = 10 (0x0000000a)
# [265000] WRITE lane=0 addr=0 data=0 (0x00000000)
# [266000] LANE ACTIVITY:
#   lane 0 | rd1_addr=0 rd1_data=0 | rd2_addr=524288 rd2_data=x | wr_en=1 wr_addr=0 wr_data=0
#   lane 1 | rd1_addr=1048576 rd1_data=x | rd2_addr=1572864 rd2_data=x | wr_en=0 wr_addr=524288 wr_data=0
#   lane 2 | rd1_addr=2097152 rd1_data=x | rd2_addr=2621440 rd2_data=x | wr_en=0 wr_addr=1048576 wr_data=0
#   lane 3 | rd1_addr=3145728 rd1_data=x | rd2_addr=3670016 rd2_data=x | wr_en=0 wr_addr=1572864 wr_data=0
# 
# [266000] STEP COMPLETED: stride=1048576
# 
# A content after step_complete:
#   A[0] @ addr 0 = 0 (0x00000000)
#   A[1] @ addr 1 = 2 (0x00000002)
#   A[2] @ addr 2 = 0 (0x00000000)
#   A[3] @ addr 3 = 4 (0x00000004)
#   A[4] @ addr 4 = 0 (0x00000000)
#   A[5] @ addr 5 = 6 (0x00000006)
#   A[6] @ addr 6 = 0 (0x00000000)
#   A[7] @ addr 7 = 8 (0x00000008)
#   A[8] @ addr 8 = 0 (0x00000000)
#   A[9] @ addr 9 = 10 (0x0000000a)
# [275000] WRITE lane=0 addr=0 data=0 (0x00000000)
# [276000] LANE ACTIVITY:
#   lane 0 | rd1_addr=0 rd1_data=0 | rd2_addr=1048576 rd2_data=x | wr_en=1 wr_addr=0 wr_data=0
#   lane 1 | rd1_addr=2097152 rd1_data=x | rd2_addr=3145728 rd2_data=x | wr_en=0 wr_addr=1048576 wr_data=0
#   lane 2 | rd1_addr=4194304 rd1_data=x | rd2_addr=5242880 rd2_data=x | wr_en=0 wr_addr=2097152 wr_data=0
#   lane 3 | rd1_addr=6291456 rd1_data=x | rd2_addr=7340032 rd2_data=x | wr_en=0 wr_addr=3145728 wr_data=0
# 
# [276000] STEP COMPLETED: stride=2097152
# 
# A content after step_complete:
#   A[0] @ addr 0 = 0 (0x00000000)
#   A[1] @ addr 1 = 2 (0x00000002)
#   A[2] @ addr 2 = 0 (0x00000000)
#   A[3] @ addr 3 = 4 (0x00000004)
#   A[4] @ addr 4 = 0 (0x00000000)
#   A[5] @ addr 5 = 6 (0x00000006)
#   A[6] @ addr 6 = 0 (0x00000000)
#   A[7] @ addr 7 = 8 (0x00000008)
#   A[8] @ addr 8 = 0 (0x00000000)
#   A[9] @ addr 9 = 10 (0x0000000a)
# [285000] WRITE lane=0 addr=0 data=0 (0x00000000)
# [286000] LANE ACTIVITY:
#   lane 0 | rd1_addr=0 rd1_data=0 | rd2_addr=2097152 rd2_data=x | wr_en=1 wr_addr=0 wr_data=0
#   lane 1 | rd1_addr=4194304 rd1_data=x | rd2_addr=6291456 rd2_data=x | wr_en=0 wr_addr=2097152 wr_data=0
#   lane 2 | rd1_addr=8388608 rd1_data=x | rd2_addr=10485760 rd2_data=x | wr_en=0 wr_addr=4194304 wr_data=0
#   lane 3 | rd1_addr=12582912 rd1_data=x | rd2_addr=14680064 rd2_data=x | wr_en=0 wr_addr=6291456 wr_data=0
# 
# [286000] STEP COMPLETED: stride=4194304
# 
# A content after step_complete:
#   A[0] @ addr 0 = 0 (0x00000000)
#   A[1] @ addr 1 = 2 (0x00000002)
#   A[2] @ addr 2 = 0 (0x00000000)
#   A[3] @ addr 3 = 4 (0x00000004)
#   A[4] @ addr 4 = 0 (0x00000000)
#   A[5] @ addr 5 = 6 (0x00000006)
#   A[6] @ addr 6 = 0 (0x00000000)
#   A[7] @ addr 7 = 8 (0x00000008)
#   A[8] @ addr 8 = 0 (0x00000000)
#   A[9] @ addr 9 = 10 (0x0000000a)
# [295000] WRITE lane=0 addr=0 data=0 (0x00000000)
# [296000] LANE ACTIVITY:
#   lane 0 | rd1_addr=0 rd1_data=0 | rd2_addr=4194304 rd2_data=x | wr_en=1 wr_addr=0 wr_data=0
#   lane 1 | rd1_addr=8388608 rd1_data=x | rd2_addr=12582912 rd2_data=x | wr_en=0 wr_addr=4194304 wr_data=0
#   lane 2 | rd1_addr=16777216 rd1_data=x | rd2_addr=20971520 rd2_data=x | wr_en=0 wr_addr=8388608 wr_data=0
#   lane 3 | rd1_addr=25165824 rd1_data=x | rd2_addr=29360128 rd2_data=x | wr_en=0 wr_addr=12582912 wr_data=0
# 
# [296000] STEP COMPLETED: stride=8388608
